<?xml version="1.0" encoding="UTF-8" standalone="no"?>
<svg width="26px" height="26px" viewBox="0 0 26 26" version="1.1" xmlns="http://www.w3.org/2000/svg" xmlns:xlink="http://www.w3.org/1999/xlink" xmlns:sketch="http://www.bohemiancoding.com/sketch/ns">
    <!-- Generator: Sketch 3.2.2 (9983) - http://www.bohemiancoding.com/sketch -->
    <title>Instagram</title>
    <desc>Created with Sketch.</desc>
    <defs></defs>
    <g id="Page-1" stroke="none" stroke-width="1" fill="none" fill-rule="evenodd" sketch:type="MSPage">
        <path d="M26,3.21614583 C26,1.43995312 24.5600469,0 22.7838542,0 L3.21614583,0 C1.43995312,0 0,1.43995312 0,3.21614583 L0,22.7838542 C0,24.5600469 1.43995312,26 3.21614583,26 L22.7838542,26 C24.5600469,26 26,24.5600469 26,22.7838542 L26,3.21614583 L26,3.21614583 Z M13.0338542,7.53817187 C16.0253438,7.53817187 18.4505208,9.96321354 18.4505208,12.9548385 C18.4505208,15.9464635 16.0253438,18.3715052 13.0338542,18.3715052 C10.0423646,18.3715052 7.6171875,15.9464635 7.6171875,12.9548385 C7.6171875,9.96321354 10.0423646,7.53817187 13.0338542,7.53817187 L13.0338542,7.53817187 Z M23.8333333,6.5 C23.8333333,7.09827083 23.3483385,7.58333333 22.75,7.58333333 L19.5,7.58333333 C18.9016615,7.58333333 18.4166667,7.09827083 18.4166667,6.5 L18.4166667,3.25 C18.4166667,2.65172917 18.9016615,2.16666667 19.5,2.16666667 L22.75,2.16666667 C23.3483385,2.16666667 23.8333333,2.65172917 23.8333333,3.25 L23.8333333,6.5 L23.8333333,6.5 Z M22.8177083,23.8333333 L3.31770833,23.8333333 C2.72038542,23.8333333 2.16666667,23.2796146 2.16666667,22.6822917 L2.16666667,10.8333333 L5.76008333,10.8333333 C5.55641667,11.5104167 5.45052083,12.2313073 5.45052083,12.9717656 C5.45052083,14.9973958 6.23932292,16.8932292 7.67169271,18.3255312 C9.1040625,19.7578333 11.0082917,20.5423698 13.0338542,20.5423698 C15.0594167,20.5423698 16.9637135,19.7514687 18.3960156,18.3191667 C19.8283177,16.8868646 20.6171875,14.9984792 20.6171875,12.972849 C20.6171875,12.2323906 20.5113594,11.5104167 20.307625,10.8333333 L23.8333333,10.8333333 L23.8333333,22.6822917 C23.8333333,23.2796146 23.4150312,23.8333333 22.8177083,23.8333333 L22.8177083,23.8333333 Z" id="Instagram" fill="#000000" sketch:type="MSShapeGroup"></path>
    </g>
</svg>